^C:\USERS\MIHAI\DOCUMENTS\VISUAL STUDIO 2015\PROJECTS\FA_LAB3\FA_LAB3\DEBUG\QUICKSORT.OBJ
C:\USERS\MIHAI\DOCUMENTS\VISUAL STUDIO 2015\PROJECTS\FA_LAB3\DEBUG\FA_LAB3.ILK
C:\USERS\MIHAI\DOCUMENTS\VISUAL STUDIO 2015\PROJECTS\FA_LAB3\DEBUG\FA_LAB3.EXE
C:\USERS\MIHAI\DOCUMENTS\VISUAL STUDIO 2015\PROJECTS\FA_LAB3\DEBUG\FA_LAB3.PDB
