^C:\USERS\MIHAI\DOCUMENTS\VISUAL STUDIO 2015\PROJECTS\PROJECT1\PROJECT1\SOURCE.CPP
C:\USERS\MIHAI\DOCUMENTS\VISUAL STUDIO 2015\PROJECTS\PROJECT1\PROJECT1\DEBUG\VC140.PDB
C:\USERS\MIHAI\DOCUMENTS\VISUAL STUDIO 2015\PROJECTS\PROJECT1\PROJECT1\DEBUG\VC140.IDB
C:\USERS\MIHAI\DOCUMENTS\VISUAL STUDIO 2015\PROJECTS\PROJECT1\PROJECT1\DEBUG\SOURCE.OBJ
