^C:\USERS\MIHAI\DOCUMENTS\VISUAL STUDIO 2015\PROJECTS\FA_LAB_2\FA_LAB_2\HEAP.CPP
C:\USERS\MIHAI\DOCUMENTS\VISUAL STUDIO 2015\PROJECTS\FA_LAB_2\FA_LAB_2\DEBUG\VC140.PDB
C:\USERS\MIHAI\DOCUMENTS\VISUAL STUDIO 2015\PROJECTS\FA_LAB_2\FA_LAB_2\DEBUG\VC140.IDB
C:\USERS\MIHAI\DOCUMENTS\VISUAL STUDIO 2015\PROJECTS\FA_LAB_2\FA_LAB_2\DEBUG\HEAP.OBJ
