^C:\USERS\MIHAI\DOCUMENTS\VISUAL STUDIO 2015\PROJECTS\ANCA\ANCA\DEBUG\SOURCE.OBJ
C:\USERS\MIHAI\DOCUMENTS\VISUAL STUDIO 2015\PROJECTS\ANCA\DEBUG\ANCA.ILK
C:\USERS\MIHAI\DOCUMENTS\VISUAL STUDIO 2015\PROJECTS\ANCA\DEBUG\ANCA.EXE
C:\USERS\MIHAI\DOCUMENTS\VISUAL STUDIO 2015\PROJECTS\ANCA\DEBUG\ANCA.PDB
